{
  "formatVersion": 1,
  "database": {
    "version": 4,
    "identityHash": "66e31c61cfbc37ba9b65000112c18fb6",
    "entities": [
      {
        "tableName": "currency",
        "createSql": "CREATE TABLE IF NOT EXISTS `${TABLE_NAME}` (`code` TEXT NOT NULL, `name` TEXT NOT NULL, PRIMARY KEY(`code`))",
        "fields": [
          {
            "fieldPath": "code",
            "columnName": "code",
            "affinity": "TEXT",
            "notNull": true
          },
          {
            "fieldPath": "name",
            "columnName": "name",
            "affinity": "TEXT",
            "notNull": true
          }
        ],
        "primaryKey": {
          "columnNames": [
            "code"
          ],
          "autoGenerate": false
        },
        "indices": [],
        "foreignKeys": []
      },
      {
        "tableName": "wallet",
        "createSql": "CREATE TABLE IF NOT EXISTS `${TABLE_NAME}` (`id` INTEGER PRIMARY KEY AUTOINCREMENT NOT NULL, `name` TEXT NOT NULL, `currency` TEXT NOT NULL, `ammout` REAL NOT NULL, FOREIGN KEY(`currency`) REFERENCES `currency`(`code`) ON UPDATE NO ACTION ON DELETE NO ACTION )",
        "fields": [
          {
            "fieldPath": "id",
            "columnName": "id",
            "affinity": "INTEGER",
            "notNull": true
          },
          {
            "fieldPath": "name",
            "columnName": "name",
            "affinity": "TEXT",
            "notNull": true
          },
          {
            "fieldPath": "currency",
            "columnName": "currency",
            "affinity": "TEXT",
            "notNull": true
          },
          {
            "fieldPath": "ammount",
            "columnName": "ammout",
            "affinity": "REAL",
            "notNull": true
          }
        ],
        "primaryKey": {
          "columnNames": [
            "id"
          ],
          "autoGenerate": true
        },
        "indices": [],
        "foreignKeys": [
          {
            "table": "currency",
            "onDelete": "NO ACTION",
            "onUpdate": "NO ACTION",
            "columns": [
              "currency"
            ],
            "referencedColumns": [
              "code"
            ]
          }
        ]
      },
      {
        "tableName": "operation",
        "createSql": "CREATE TABLE IF NOT EXISTS `${TABLE_NAME}` (`id` INTEGER PRIMARY KEY AUTOINCREMENT NOT NULL, `wallet_id` INTEGER NOT NULL, `operation_type` TEXT NOT NULL, `amount` REAL NOT NULL, `date` INTEGER NOT NULL, `operation_description` TEXT NOT NULL, FOREIGN KEY(`wallet_id`) REFERENCES `wallet`(`id`) ON UPDATE NO ACTION ON DELETE NO ACTION )",
        "fields": [
          {
            "fieldPath": "id",
            "columnName": "id",
            "affinity": "INTEGER",
            "notNull": true
          },
          {
            "fieldPath": "walletId",
            "columnName": "wallet_id",
            "affinity": "INTEGER",
            "notNull": true
          },
          {
            "fieldPath": "operationType",
            "columnName": "operation_type",
            "affinity": "TEXT",
            "notNull": true
          },
          {
            "fieldPath": "amount",
            "columnName": "amount",
            "affinity": "REAL",
            "notNull": true
          },
          {
            "fieldPath": "date",
            "columnName": "date",
            "affinity": "INTEGER",
            "notNull": true
          },
          {
            "fieldPath": "operationDescription",
            "columnName": "operation_description",
            "affinity": "TEXT",
            "notNull": true
          }
        ],
        "primaryKey": {
          "columnNames": [
            "id"
          ],
          "autoGenerate": true
        },
        "indices": [],
        "foreignKeys": [
          {
            "table": "wallet",
            "onDelete": "NO ACTION",
            "onUpdate": "NO ACTION",
            "columns": [
              "wallet_id"
            ],
            "referencedColumns": [
              "id"
            ]
          }
        ]
      }
    ],
    "setupQueries": [
      "CREATE TABLE IF NOT EXISTS room_master_table (id INTEGER PRIMARY KEY,identity_hash TEXT)",
      "INSERT OR REPLACE INTO room_master_table (id,identity_hash) VALUES(42, \"66e31c61cfbc37ba9b65000112c18fb6\")"
    ]
  }
}